Taller de programación R - SERNANP - 6 Gráficos en R
…
6.2.1 Primeros pasos

En este primer ejercicio usaremos la base de datos millas. Simplemente analizando los datos intentaremos responder a las preguntas: ¿los automóviles con motores grandes consumen más combustible que los automóviles con motores pequeños? ¿Cómo es la relación entre el tamaño del motor y la eficiencia del combustible? ¿Es positiva? ¿Es negativa? ¿Es lineal o no lineal?

6.2.2 El data frame millas

Esta data la podemos cargar con la librería datos, (datos::millas). El data frame millas contiene observaciones para 38 modelos de automóviles recopiladas por la Agencia de Protección Ambiental de los EE. UU.

Code

millas

# A tibble: 234 × 11
   fabricante modelo     cilindrada  anio cilindros transmision traccion ciudad
   <chr>      <chr>           <dbl> <int>     <int> <chr>       <chr>     <int>
 1 audi       a4                1.8  1999         4 auto(l5)    d            18
 2 audi       a4                1.8  1999         4 manual(m5)  d            21
 3 audi       a4                2    2008         4 manual(m6)  d            20
 4 audi       a4                2    2008         4 auto(av)    d            21
 5 audi       a4                2.8  1999         6 auto(l5)    d            16
 6 audi       a4                2.8  1999         6 manual(m5)  d            18
 7 audi       a4                3.1  2008         6 auto(av)    d            18
 8 audi       a4 quattro        1.8  1999         4 manual(m5)  4            18
 9 audi       a4 quattro        1.8  1999         4 auto(l5)    4            16
10 audi       a4 quattro        2    2008         4 manual(m6)  4            20
# ℹ 224 more rows
# ℹ 3 more variables: autopista <int>, combustible <chr>, clase <chr>
…
