Taller de programación R - SERNANP - 5 Manipulación de datos con tidyverse
…
# A tibble: 2 × 11
   ...1 Codigo Area_natur    Periodo Base_legal Fecha_lega Base_leg00 Fecha_le00
  <dbl> <chr>  <chr>         <chr>   <chr>      <date>     <chr>      <date>    
1     5 RN06   de Salinas y… 2016-2… R.J. Nº 0… 2007-04-26 <NA>       1899-12-30
2    52 SN03   Lagunas de M… 2015-2… R.P. Nº 2… 2015-10-29 <NA>       1899-12-30
# ℹ 3 more variables: Base_leg01 <chr>, Fecha_le01 <date>, Superficie <dbl>

A veces puedes simplificar subconjuntos complicados al recordar la ley de De Morgan: !(x & y) es lo mismo que !x | !y, y !(x | y) es lo mismo que **!x & !y*. Por ejemplo, si deseas encontrar areas mayores a 26.2 y menores 8652.24 .

Code

dplyr::filter(z_amortiguamiento,!(Superficie > 8652.24  | Superficie < 26.2))

# A tibble: 21 × 11
    ...1 Codigo Area_natur   Periodo Base_legal Fecha_lega Base_leg00 Fecha_le00
   <dbl> <chr>  <chr>        <chr>   <chr>      <date>     <chr>      <date>    
 1     9 SH02   de la Pampa… 2016-2… R.P. N° 0… 2016-01-29 <NA>       1899-12-30
 2    10 SH01   de Chacamar… 2002-2… R.J. Nº 4… 2002-12-20 <NA>       1899-12-30
 3    13 SN04   de Ampay     2015-2… R.P. Nº 1… 2014-12-22 <NA>       1899-12-30
 4    14 SN01   de Huayllay  2018-2… R.J. Nº 3… 2001-12-13 <NA>       1899-12-30
 5    21 PN05   Cerros de A… 2012-2… R.P. N° 0… 2012-02-17 Ley N° 30… 2015-11-11
 6    36 SN05   los Manglar… 2023-2… R.P. N° 0… 2017-02-28 <NA>       1899-12-30
 7    37 RC05   Machiguenga  2023-2… R.P. N° 0… 2017-02-28 <NA>       1899-12-30
 8    39 SN07   Pampa Hermo… 2022-2… R.P. Nº 2… 2012-12-28 <NA>       1899-12-30
 9    40 RVS01  Laquipampa   2015-2… R.P. Nº 0… 2015-01-27 <NA>       1899-12-30
10    41 RVS02  Los Pantano… 2016-2… R.J. Nº 3… 2001-12-28 <NA>       1899-12-30
# ℹ 11 more rows
# ℹ 3 more variables: Base_leg01 <chr>, Fecha_le01 <date>, Superficie <dbl>

5.1.2 Reordenar las filas con arrange()

arrange()** funciona de manera similar afilter()` excepto que en lugar de seleccionar filas, cambia su orden. La función toma un dataframe** y un conjunto de nombres de columnas (o expresiones más complicadas) para ordenar según ellas. Si proporcionas más de un nombre de columna, cada columna adicional se utilizará para romper empates en los valores de las columnas anteriores:

Code

arrange(z_amortiguamiento, Codigo)

# A tibble: 80 × 11
    ...1 Codigo Area_natur   Periodo Base_legal Fecha_lega Base_leg00 Fecha_le00
   <dbl> <chr>  <chr>        <chr>   <chr>      <date>     <chr>      <date>    
 1     2 BP03   de Pui Pui   2019-2… R.J. Nº 2… 2008-10-28 <NA>       1899-12-30
 2    75 BP04   San Matias-… 2023-2… R.P. N° 2… 2015-11-27 <NA>       1899-12-30
 3    53 BP05   de Pagaibam… 2017-2… R.J. Nº 3… 2001-12-13 <NA>       1899-12-30
 4    77 BP06   Alto Mayo    2023-2… R.P. Nº 0… 2023-02-27 <NA>       1899-12-30
 5    57 CC01   El Angolo    2019-2… R.P. N° 2… 2012-11-28 <NA>       1899-12-30
 6    29 CC02   Sunchubamba  <NA>    R.J. Nº 3… 2001-12-13 <NA>       1899-12-30
 7    26 PN01   de Cutervo   2017-2… R.P. Nº 1… 2009-09-24 <NA>       1899-12-30
 8    56 PN02   de Tingo Ma… 2022-2… R.P. N° 0… 2017-03-31 <NA>       1899-12-30
 9    24 PN03   del Manu     2019-2… R.P. Nº 0… 2013-05-22 <NA>       1899-12-30
10    25 PN03   del Manu     2019-2… R.P. Nº 0… 2013-05-22 <NA>       1899-12-30
# ℹ 70 more rows
# ℹ 3 more variables: Base_leg01 <chr>, Fecha_le01 <date>, Superficie <dbl>

Usa desc() para reordenar por una columna en orden descendente:

Code

arrange(z_amortiguamiento, desc(Superficie))

# A tibble: 80 × 11
    ...1 Codigo Area_natur   Periodo Base_legal Fecha_lega Base_leg00 Fecha_le00
   <dbl> <chr>  <chr>        <chr>   <chr>      <date>     <chr>      <date>    
 1    18 PN09   Cordillera … 2017-2… R.P. Nº 0… 2011-04-14 <NA>       1899-12-30
 2    42 RN08   Pacaya-Sami… 2017-2… R.J. Nº 1… 2009-09-24 <NA>       1899-12-30
 3    51 RC02   El Sira      2015-2… R.P. Nº 0… 2009-02-27 <NA>       1899-12-30
 4    67 PN11   Alto Purús   2019-2… R.P. Nº 2… 2012-12-28 <NA>       1899-12-30
 5    30 PN06   del Río Abi… 2014-2… R.J. Nº 2… 2006-09-27 <NA>       1899-12-30
 6    66 PN11   Alto Purús   2019-2… R.P. Nº 2… 2012-12-28 <NA>       1899-12-30
 7    60 RP02   Subcuenca d… 2019-2… R.P. Nº 1… 2009-09-15 <NA>       1899-12-30
 8    24 PN03   del Manu     2019-2… R.P. Nº 0… 2013-05-22 <NA>       1899-12-30
 9    15 PN14   Sierra del … 2023-2… R.P. N° 2… 2016-11-07 <NA>       1899-12-30
10    28 RN14   Pucacuro     2019-2… R.P. Nº 0… 2013-03-20 <NA>       1899-12-30
# ℹ 70 more rows
# ℹ 3 more variables: Base_leg01 <chr>, Fecha_le01 <date>, Superficie <dbl>
…
No es raro obtener conjuntos de datos con cientos de variables. En este caso, el primer desafío a menudo se reduce a las variables que realmente te interesan. select() te permite seleccionar rápidamente un subconjunto útil utilizando operaciones basadas en los nombres de las variables.

En este caso emplearemos select() para quedarnos con algunas columnas en específico:

Code

# Seleccionar columnas por nombre
dplyr::select(z_amortiguamiento, Codigo, Area_natur)

# A tibble: 80 × 2
   Codigo Area_natur                      
   <chr>  <chr>                           
 1 RC04   Ashaninka                       
 2 BP03   de Pui Pui                      
 3 RN12   Matsés                          
 4 RN10   Allpahuayo Mishana              
 5 RN06   de Salinas y Aguada Blanca      
 6 RN02   de Junín                        
 7 RN01   Pampa Galeras Barbara D' Achille
 8 SH04   Bosque de Pomac                 
 9 SH02   de la Pampa de Ayacucho         
10 SH01   de Chacamarca                   
# ℹ 70 more rows

Code

# Seleccionar todas las columnas entre Codigo y Periodo (incluyente)
dplyr::select(z_amortiguamiento, Codigo:Periodo)

# A tibble: 80 × 3
   Codigo Area_natur                       Periodo  
   <chr>  <chr>                            <chr>    
 1 RC04   Ashaninka                        2019-2023
 2 BP03   de Pui Pui                       2019-2023
 3 RN12   Matsés                           2023-2027
 4 RN10   Allpahuayo Mishana               2022-2026
 5 RN06   de Salinas y Aguada Blanca       2016-2020
 6 RN02   de Junín                         2008-2012
 7 RN01   Pampa Galeras Barbara D' Achille 2022-2026
 8 SH04   Bosque de Pomac                  2017-2021
 9 SH02   de la Pampa de Ayacucho          2016-2020
10 SH01   de Chacamarca                    2002-2007
# ℹ 70 more rows

Code

# Seleccionar todas las columnas excepto aquellas entre Codigo y Periodo (incluyente)
dplyr::select(z_amortiguamiento, -(Codigo:Periodo))

# A tibble: 80 × 8
    ...1 Base_legal       Fecha_lega Base_leg00 Fecha_le00 Base_leg01 Fecha_le01
   <dbl> <chr>            <date>     <chr>      <date>     <chr>      <date>    
 1     1 R.P. Nº 239-201… 2012-12-28 <NA>       1899-12-30 R.P. N° 0… 2019-01-29
 2     2 R.J. Nº 285-200… 2008-10-28 <NA>       1899-12-30 R.P. N° 0… 2019-01-29
 3     3 R.P. Nº 054-201… 2014-02-27 <NA>       1899-12-30 R.P N° 32… 2022-12-29
 4     4 R.J. Nº 159-200… 2007-07-24 <NA>       1899-12-30 R.P. N° 0… 2022-03-15
 5     5 R.J. Nº 087-200… 2007-04-26 <NA>       1899-12-30 R.P. N° 2… 2016-09-14
 6     6 R.J. Nº 145-200… 2008-06-03 <NA>       1899-12-30 <NA>       1899-12-30
 7     7 R.J. Nº 331-200… 2001-12-13 <NA>       1899-12-30 R.P. N° 0… 2022-03-02
 8     8 R.P. Nº 006-201… 2011-01-19 <NA>       1899-12-30 R.P. N° 9… 2017-03-31
 9     9 R.P. N° 019-201… 2016-01-29 <NA>       1899-12-30 <NA>       1899-12-30
10    10 R.J. Nº 466-200… 2002-12-20 <NA>       1899-12-30 <NA>       1899-12-30
# ℹ 70 more rows
# ℹ 1 more variable: Superficie <dbl>
…
# new name = old name
df <- rename(z_amortiguamiento, "Baselegal" = Base_legal)
names(df)

 [1] "...1"       "Codigo"     "Area_natur" "Periodo"    "Baselegal" 
 [6] "Fecha_lega" "Base_leg00" "Fecha_le00" "Base_leg01" "Fecha_le01"
[11] "Superficie"

Otra opción es usar select() junto con el auxiliar everything() (todo, en inglés). Esto es útil si tienes un grupo de variables que te gustaría mover al comienzo del data frame.

Code

dplyr::select(z_amortiguamiento, Superficie, everything())

# A tibble: 80 × 11
   Superficie  ...1 Codigo Area_natur   Periodo Base_legal Fecha_lega Base_leg00
        <dbl> <dbl> <chr>  <chr>        <chr>   <chr>      <date>     <chr>     
 1    325684.     1 RC04   Ashaninka    2019-2… R.P. Nº 2… 2012-12-28 <NA>      
 2     45367.     2 BP03   de Pui Pui   2019-2… R.J. Nº 2… 2008-10-28 <NA>      
 3    231398.     3 RN12   Matsés       2023-2… R.P. Nº 0… 2014-02-27 <NA>      
 4     65957.     4 RN10   Allpahuayo … 2022-2… R.J. Nº 1… 2007-07-24 <NA>      
 5    310242.     5 RN06   de Salinas … 2016-2… R.J. Nº 0… 2007-04-26 <NA>      
 6    100858.     6 RN02   de Junín     2008-2… R.J. Nº 1… 2008-06-03 <NA>      
 7     14531.     7 RN01   Pampa Galer… 2022-2… R.J. Nº 3… 2001-12-13 <NA>      
 8      9291.     8 SH04   Bosque de P… 2017-2… R.P. Nº 0… 2011-01-19 <NA>      
 9       429.     9 SH02   de la Pampa… 2016-2… R.P. N° 0… 2016-01-29 <NA>      
10      1332.    10 SH01   de Chacamar… 2002-2… R.J. Nº 4… 2002-12-20 <NA>      
# ℹ 70 more rows
# ℹ 3 more variables: Fecha_le00 <date>, Base_leg01 <chr>, Fecha_le01 <date>
…
z_amortiguamiento_sl <- dplyr::select(
  z_amortiguamiento,
  Codigo:Periodo,
  contains("leg"),
  Superficie
)

mutate(
  z_amortiguamiento_sl,
  area_ha = Superficie / 10000,
  inicio_legal = str_split(Periodo, "-", simplify = TRUE)[,1],
  fin_legal = str_split(Periodo, "-", simplify = TRUE)[,2]
)

# A tibble: 80 × 11
   Codigo Area_natur         Periodo Base_legal Fecha_lega Base_leg00 Base_leg01
   <chr>  <chr>              <chr>   <chr>      <date>     <chr>      <chr>     
 1 RC04   Ashaninka          2019-2… R.P. Nº 2… 2012-12-28 <NA>       R.P. N° 0…
 2 BP03   de Pui Pui         2019-2… R.J. Nº 2… 2008-10-28 <NA>       R.P. N° 0…
 3 RN12   Matsés             2023-2… R.P. Nº 0… 2014-02-27 <NA>       R.P N° 32…
 4 RN10   Allpahuayo Mishana 2022-2… R.J. Nº 1… 2007-07-24 <NA>       R.P. N° 0…
 5 RN06   de Salinas y Agua… 2016-2… R.J. Nº 0… 2007-04-26 <NA>       R.P. N° 2…
 6 RN02   de Junín           2008-2… R.J. Nº 1… 2008-06-03 <NA>       <NA>      
 7 RN01   Pampa Galeras Bar… 2022-2… R.J. Nº 3… 2001-12-13 <NA>       R.P. N° 0…
 8 SH04   Bosque de Pomac    2017-2… R.P. Nº 0… 2011-01-19 <NA>       R.P. N° 9…
 9 SH02   de la Pampa de Ay… 2016-2… R.P. N° 0… 2016-01-29 <NA>       <NA>      
10 SH01   de Chacamarca      2002-2… R.J. Nº 4… 2002-12-20 <NA>       <NA>      
# ℹ 70 more rows
# ℹ 4 more variables: Superficie <dbl>, area_ha <dbl>, inicio_legal <chr>,
#   fin_legal <chr>

Si solo quieres conservar las nuevas variables, usa transmute():

Code

transmute(
  z_amortiguamiento_sl,
  area_ha = Superficie / 10000,
  inicio_legal = str_split(Periodo, "-", simplify = TRUE)[,1],
  fin_legal = str_split(Periodo, "-", simplify = TRUE)[,2]
)

# A tibble: 80 × 3
   area_ha inicio_legal fin_legal
     <dbl> <chr>        <chr>    
 1 32.6    2019         2023     
 2  4.54   2019         2023     
 3 23.1    2023         2027     
 4  6.60   2022         2026     
 5 31.0    2016         2020     
 6 10.1    2008         2012     
 7  1.45   2022         2026     
 8  0.929  2017         2021     
 9  0.0429 2016         2020     
10  0.133  2002         2007     
# ℹ 70 more rows
…
