R Sernanp – c03_parte2
…
library(nycflights13)
flights_sml <-
  dplyr::select(
    flights,
    year:day,
    ends_with("delay"),
    distance, air_time
  )
mutate(
  flights_sml,
  gain = arr_delay - dep_delay,
  speed = distance / (air_time * 60)
)

# A tibble: 336,776 × 9
    year month   day dep_delay arr_delay distance air_time  gain  speed
   <int> <int> <int>     <dbl>     <dbl>    <dbl>    <dbl> <dbl>  <dbl>
 1  2013     1     1         2        11     1400      227     9 0.103 
 2  2013     1     1         4        20     1416      227    16 0.104 
 3  2013     1     1         2        33     1089      160    31 0.113 
 4  2013     1     1        -1       -18     1576      183   -17 0.144 
 5  2013     1     1        -6       -25      762      116   -19 0.109 
 6  2013     1     1        -4        12      719      150    16 0.0799
 7  2013     1     1        -5        19     1065      158    24 0.112 
 8  2013     1     1        -3       -14      229       53   -11 0.0720
 9  2013     1     1        -3        -8      944      140    -5 0.112 
10  2013     1     1        -2         8      733      138    10 0.0885
# … with 336,766 more rows

Ten en cuenta que puedes hacer referencia a las columnas que acabas de crear:

mutate(
  flights_sml,
  gain = arr_delay - dep_delay,
  hours = air_time / 60,
  gain_per_hour = gain / hours
)

# A tibble: 336,776 × 10
    year month   day dep_delay arr_delay distance air_time  gain hours gain_pe…¹
   <int> <int> <int>     <dbl>     <dbl>    <dbl>    <dbl> <dbl> <dbl>     <dbl>
 1  2013     1     1         2        11     1400      227     9 3.78       2.38
 2  2013     1     1         4        20     1416      227    16 3.78       4.23
 3  2013     1     1         2        33     1089      160    31 2.67      11.6 
 4  2013     1     1        -1       -18     1576      183   -17 3.05      -5.57
 5  2013     1     1        -6       -25      762      116   -19 1.93      -9.83
 6  2013     1     1        -4        12      719      150    16 2.5        6.4 
 7  2013     1     1        -5        19     1065      158    24 2.63       9.11
 8  2013     1     1        -3       -14      229       53   -11 0.883    -12.5 
 9  2013     1     1        -3        -8      944      140    -5 2.33      -2.14
10  2013     1     1        -2         8      733      138    10 2.3        4.35
# … with 336,766 more rows, and abbreviated variable name ¹​gain_per_hour

Si solo quieres conservar las nuevas variables, usa transmute():

transmute(
  flights,
  gain = arr_delay - dep_delay,
  hours = air_time / 60,
  gain_per_hour = gain / hours
)

# A tibble: 336,776 × 3
    gain hours gain_per_hour
   <dbl> <dbl>         <dbl>
 1     9 3.78           2.38
 2    16 3.78           4.23
 3    31 2.67          11.6 
 4   -17 3.05          -5.57
 5   -19 1.93          -9.83
 6    16 2.5            6.4 
 7    24 2.63           9.11
 8   -11 0.883        -12.5 
 9    -5 2.33          -2.14
10    10 2.3            4.35
# … with 336,766 more rows
…
Hay muchas funciones para crear nuevas variables que puedes usar con mutate(). La propiedad clave es que la función debe ser vectorizada: debe tomar un vector de valores como input, y devolver un vector con el mismo número de valores como output. No hay forma de enumerar todas las posibles funciones que podrías usar, pero aquí hay una selección de funciones que frecuentemente son útiles:

Operadores aritméticos: +, -, *, /, ^. Todos están vectorizados usando las llamadas “reglas de reciclaje”. Si un parámetro es más corto que el otro, se extenderá automáticamente para tener la misma longitud. Esto es muy útil cuando uno de los argumentos es un solo número: air_time / 60, hours * 60 + minute, etc. Los operadores aritméticos también son útiles junto con las funciones de agregar que aprenderás más adelante. Por ejemplo, x / sum(x) calcula la proporción de un total, y y - mean(y) calcula la diferencia de la media.

Aritmética modular: %/% (división entera) y %% (resto), donde x == y * (x %/% y) + (x %% y). La aritmética modular es una herramienta útil porque te permite dividir enteros en partes. Por ejemplo, en el conjunto de datos de vuelos, puedes calcular hora y minutos de dep_time con:

transmute(
  flights,
  dep_time,
  hour = dep_time %/% 100,
  minute = dep_time %% 100
)

# A tibble: 336,776 × 3
   dep_time  hour minute
      <int> <dbl>  <dbl>
 1      517     5     17
 2      533     5     33
 3      542     5     42
 4      544     5     44
 5      554     5     54
 6      554     5     54
 7      555     5     55
 8      557     5     57
 9      557     5     57
10      558     5     58
# … with 336,766 more rows
…
# A tibble: 1 × 1
  delay
  <dbl>
1  12.6

summarise() no es muy útil a menos que lo enlacemos con group_by(). Esto cambia la unidad de análisis del conjunto de datos completo a grupos individuales. Luego, cuando uses los verbos dplyr en un data frame agrupado, estos se aplicarán automáticamente “por grupo”. Por ejemplo, si aplicamos exactamente el mismo código a un dataframe agrupado por fecha, obtenemos el retraso promedio por fecha:

by_day <- group_by(flights, year, month, day)
summarize(by_day, delay = mean(dep_delay, na.rm = TRUE))

`summarise()` has grouped output by 'year', 'month'. You can override using the
`.groups` argument.

# A tibble: 365 × 4
# Groups:   year, month [12]
    year month   day delay
   <int> <int> <int> <dbl>
 1  2013     1     1 11.5 
 2  2013     1     2 13.9 
 3  2013     1     3 11.0 
 4  2013     1     4  8.95
 5  2013     1     5  5.73
 6  2013     1     6  7.15
 7  2013     1     7  5.42
 8  2013     1     8  2.55
 9  2013     1     9  2.28
10  2013     1    10  2.84
# … with 355 more rows
…
Trabajar con el pipe es uno de los criterios clave para pertenecer al tidyverse. La única excepción es ggplot2: se escribió antes de que se descubriera el pipe. Lamentablemente, la siguiente iteración de ggplot2, ggvis, que sí utiliza el pipe, aún no está lista para el horario estelar.

Valores faltantes

Es posible que te hayas preguntado sobre el argumento na.rm que utilizamos anteriormente. ¿Qué pasa si no lo configuramos?

flights %>% 
  group_by(year, month, day) %>% 
  summarise(mean = mean(dep_delay))

`summarise()` has grouped output by 'year', 'month'. You can override using the
`.groups` argument.

# A tibble: 365 × 4
# Groups:   year, month [12]
    year month   day  mean
   <int> <int> <int> <dbl>
 1  2013     1     1    NA
 2  2013     1     2    NA
 3  2013     1     3    NA
 4  2013     1     4    NA
 5  2013     1     5    NA
 6  2013     1     6    NA
 7  2013     1     7    NA
 8  2013     1     8    NA
 9  2013     1     9    NA
10  2013     1    10    NA
# … with 355 more rows

¡Obtenemos muchos valores faltantes! Esto se debe a que las funciones de agregación obedecen la regla habitual de valores faltantes: si hay uno en el input, el output también será un valor faltante. Afortunadamente, todas las funciones de agregación tienen un argumento na.rm que elimina los valores faltantes antes del cálculo:

flights %>% 
  group_by(year, month, day) %>% 
  summarise(mean = mean(dep_delay, na.rm = TRUE))

`summarise()` has grouped output by 'year', 'month'. You can override using the
`.groups` argument.

# A tibble: 365 × 4
# Groups:   year, month [12]
    year month   day  mean
   <int> <int> <int> <dbl>
 1  2013     1     1 11.5 
 2  2013     1     2 13.9 
 3  2013     1     3 11.0 
 4  2013     1     4  8.95
 5  2013     1     5  5.73
 6  2013     1     6  7.15
 7  2013     1     7  5.42
 8  2013     1     8  2.55
 9  2013     1     9  2.28
10  2013     1    10  2.84
# … with 355 more rows

En este caso, en el que los valores faltantes representan vuelos cancelados, también podríamos abordar el problema eliminando primero este tipo de vuelos. Guardaremos este conjunto de datos para poder reutilizarlo en los siguientes ejemplos.

not_cancelled <- flights %>% 
  filter(!is.na(dep_delay), !is.na(arr_delay))

not_cancelled %>% 
  group_by(year, month, day) %>% 
  summarise(mean = mean(dep_delay))

`summarise()` has grouped output by 'year', 'month'. You can override using the
`.groups` argument.

# A tibble: 365 × 4
# Groups:   year, month [12]
    year month   day  mean
   <int> <int> <int> <dbl>
 1  2013     1     1 11.4 
 2  2013     1     2 13.7 
 3  2013     1     3 10.9 
 4  2013     1     4  8.97
 5  2013     1     5  5.73
 6  2013     1     6  7.15
 7  2013     1     7  5.42
 8  2013     1     8  2.56
 9  2013     1     9  2.30
10  2013     1    10  2.84
# … with 355 more rows
…
Funciones de resumen útiles

Solo el uso de medias, conteos y sumas puede llevarte muy lejos, pero R proporciona muchas otras funciones de resumen útiles:

Medidas de posición: first(x), nth(x, 2), last(x). Estas trabajan de forma similar a x[1], x[2] y x[length (x)], pero te permiten establecer un valor predeterminado en el caso de que esa posición no exista (es decir, si estás tratando de obtener el tercer elemento de un grupo que solo tiene dos elementos). Por ejemplo, podemos encontrar la primera (first) y última (last) salida para cada día:

not_cancelled %>% 
  group_by(year, month, day) %>% 
  summarise(
    first_dep = first(dep_time), 
    last_dep = last(dep_time)
  )

# A tibble: 365 × 5
# Groups:   year, month [12]
    year month   day first_dep last_dep
   <int> <int> <int>     <int>    <int>
 1  2013     1     1       517     2356
 2  2013     1     2        42     2354
 3  2013     1     3        32     2349
 4  2013     1     4        25     2358
 5  2013     1     5        14     2357
 6  2013     1     6        16     2355
 7  2013     1     7        49     2359
 8  2013     1     8       454     2351
 9  2013     1     9         2     2252
10  2013     1    10         3     2320
# … with 355 more rows

Medidas de centralidad: hemos usado mean(x), pero median(x) también resulta muy útil. La media es la suma dividida por el número de observaciones; la mediana es un valor donde el 50% de x está por encima de él y el 50% está por debajo. A veces es útil combinar agregación con un subconjunto lógico.

not_cancelled %>% 
  group_by(year, month, day) %>% 
  summarise(
    avg_delay1 = mean(arr_delay),
    avg_delay2 = mean(arr_delay[arr_delay > 0]) # the average positive delay
  )

# A tibble: 365 × 5
# Groups:   year, month [12]
    year month   day avg_delay1 avg_delay2
   <int> <int> <int>      <dbl>      <dbl>
 1  2013     1     1     12.7         32.5
 2  2013     1     2     12.7         32.0
 3  2013     1     3      5.73        27.7
 4  2013     1     4     -1.93        28.3
 5  2013     1     5     -1.53        22.6
 6  2013     1     6      4.24        24.4
 7  2013     1     7     -4.95        27.8
 8  2013     1     8     -3.23        20.8
 9  2013     1     9     -0.264       25.6
10  2013     1    10     -5.90        27.3
# … with 355 more rows

Medidas de rango: min(x), quantile(x, 0.25), max(x). Los cuantiles son una generalización de la mediana. Por ejemplo, quantile(x, 0.25) encontrará un valor de x que sea mayor a 25% de los valores, y menor que el 75% restante.

not_cancelled %>% 
  group_by(year, month, day) %>% 
  summarise(
    first = min(dep_time),
    last = max(dep_time)
  )

`summarise()` has grouped output by 'year', 'month'. You can override using the
`.groups` argument.

# A tibble: 365 × 5
# Groups:   year, month [12]
    year month   day first  last
   <int> <int> <int> <int> <int>
 1  2013     1     1   517  2356
 2  2013     1     2    42  2354
 3  2013     1     3    32  2349
 4  2013     1     4    25  2358
 5  2013     1     5    14  2357
 6  2013     1     6    16  2355
 7  2013     1     7    49  2359
 8  2013     1     8   454  2351
 9  2013     1     9     2  2252
10  2013     1    10     3  2320
# … with 355 more rows

Medidas de dispersión: sd(x), IQR(x), mad(x). La raíz cuadrad de la varianza o desviación estándar sd(x) es una medida estándar de dispersión. El rango intercuartil IQR() y la desviación media absoluta mad(x) son medidas robustas equivalentes que pueden ser más útiles si tienes valores atípicos.

not_cancelled %>% 
  group_by(dest) %>% 
  summarise(distance_sd = sd(distance)) %>% 
  arrange(desc(distance_sd))

# A tibble: 104 × 2
   dest  distance_sd
   <chr>       <dbl>
 1 EGE         10.5 
 2 SAN         10.4 
 3 SFO         10.2 
 4 HNL         10.0 
 5 SEA          9.98
 6 LAS          9.91
 7 PDX          9.87
 8 PHX          9.86
 9 LAX          9.66
10 IND          9.46
# … with 94 more rows

Estas funciones son complementarias al filtrado en rangos. El filtrado te proporciona todas las variables, con cada observación en una fila distinta:

not_cancelled %>% 
  group_by(year, month, day) %>% 
  mutate(r = min_rank(desc(dep_time))) %>% 
  filter(r %in% range(r)) %>%
  dplyr::select(r)

Adding missing grouping variables: `year`, `month`, `day`

# A tibble: 770 × 4
# Groups:   year, month, day [365]
    year month   day     r
   <int> <int> <int> <int>
 1  2013     1     1   831
 2  2013     1     1     1
 3  2013     1     2   928
 4  2013     1     2     1
 5  2013     1     3   900
 6  2013     1     3     1
 7  2013     1     4   908
 8  2013     1     4     1
 9  2013     1     4     1
10  2013     1     5   717
# … with 760 more rows

Conteos: has visto n(), que no toma argumentos y que devuelve el tamaño del grupo actual. Para contar la cantidad de valores no faltantes, usa sum(!is.na (x)). Para contar la cantidad de valores distintos (únicos), usa n_distinct(x).

# ¿Qué destinos tienen la mayoría de las aerolíneas?
not_cancelled %>% 
  group_by(dest) %>% 
  summarise(carriers = n_distinct(carrier)) %>% 
  arrange(desc(carriers))

# A tibble: 104 × 2
   dest  carriers
   <chr>    <int>
 1 ATL          7
 2 BOS          7
 3 CLT          7
 4 ORD          7
 5 TPA          7
 6 AUS          6
 7 DCA          6
 8 DTW          6
 9 IAD          6
10 MSP          6
# … with 94 more rows

Los conteos son tan útiles que dplyr proporciona un ayudante simple si todo lo que quieres es un conteo:

not_cancelled %>% 
  count(dest)

# A tibble: 104 × 2
   dest      n
   <chr> <int>
 1 ABQ     254
 2 ACK     264
 3 ALB     418
 4 ANC       8
 5 ATL   16837
 6 AUS    2411
 7 AVL     261
 8 BDL     412
 9 BGR     358
10 BHM     269
# … with 94 more rows

Opcionalmente puedes proporcionar una variable de ponderación. Por ejemplo, podrías usar esto para “contar” (sumar) el número total de millas que voló un avión:

not_cancelled %>% 
  count(tailnum, wt = distance)

# A tibble: 4,037 × 2
   tailnum      n
   <chr>    <dbl>
 1 D942DN    3418
 2 N0EGMQ  239143
 3 N10156  109664
 4 N102UW   25722
 5 N103US   24619
 6 N104UW   24616
 7 N10575  139903
 8 N105UW   23618
 9 N107US   21677
10 N108UW   32070
# … with 4,027 more rows

Conteos y proporciones de valores lógicos: sum(x > 10), mean(y == 0). Cuando se usan con funciones numéricas, TRUE se convierte en 1 y FALSE en 0. Esto hace que sum() y mean() sean muy útiles: sum(x) te da la cantidad de TRUE en x, y mean(x) te da la proporción.

# ¿Cuántos vuelos salieron antes de las 5 am? 
# (estos generalmente son vuelos demorados del día anterior)
not_cancelled %>% 
  group_by(year, month, day) %>% 
  summarise(n_early = sum(dep_time < 500))

`summarise()` has grouped output by 'year', 'month'. You can override using the
`.groups` argument.

# A tibble: 365 × 4
# Groups:   year, month [12]
    year month   day n_early
   <int> <int> <int>   <int>
 1  2013     1     1       0
 2  2013     1     2       3
 3  2013     1     3       4
 4  2013     1     4       3
 5  2013     1     5       3
 6  2013     1     6       2
 7  2013     1     7       2
 8  2013     1     8       1
 9  2013     1     9       3
10  2013     1    10       3
# … with 355 more rows

# ¿Qué proporción de vuelos se retrasan más de una hora?
not_cancelled %>% 
  group_by(year, month, day) %>% 
  summarise(hour_prop = mean(arr_delay > 60))

`summarise()` has grouped output by 'year', 'month'. You can override using the
`.groups` argument.

# A tibble: 365 × 4
# Groups:   year, month [12]
    year month   day hour_prop
   <int> <int> <int>     <dbl>
 1  2013     1     1    0.0722
 2  2013     1     2    0.0851
 3  2013     1     3    0.0567
 4  2013     1     4    0.0396
 5  2013     1     5    0.0349
 6  2013     1     6    0.0470
 7  2013     1     7    0.0333
 8  2013     1     8    0.0213
 9  2013     1     9    0.0202
10  2013     1    10    0.0183
# … with 355 more rows

Agrupación por múltiples variables

Cuando agrupas por múltiples variables, cada resumen se desprende de un nivel de la agrupación. Eso hace que sea más fácil acumular progresivamente en un conjunto de datos:

daily <- group_by(flights, year, month, day)
(per_day   <- summarise(daily, flights = n()))

`summarise()` has grouped output by 'year', 'month'. You can override using the
`.groups` argument.

# A tibble: 365 × 4
# Groups:   year, month [12]
    year month   day flights
   <int> <int> <int>   <int>
 1  2013     1     1     842
 2  2013     1     2     943
 3  2013     1     3     914
 4  2013     1     4     915
 5  2013     1     5     720
 6  2013     1     6     832
 7  2013     1     7     933
 8  2013     1     8     899
 9  2013     1     9     902
10  2013     1    10     932
# … with 355 more rows
…
Transformaciones agrupadas (y filtros)

La agrupación es más útil si se utiliza junto con summarise(), pero también puedes hacer operaciones convenientes con mutate() y filter():

Encuentra los peores miembros de cada grupo:

flights_sml %>% 
  group_by(year, month, day) %>%
  filter(rank(desc(arr_delay)) < 10)

# A tibble: 3,306 × 7
# Groups:   year, month, day [365]
    year month   day dep_delay arr_delay distance air_time
   <int> <int> <int>     <dbl>     <dbl>    <dbl>    <dbl>
 1  2013     1     1       853       851      184       41
 2  2013     1     1       290       338     1134      213
 3  2013     1     1       260       263      266       46
 4  2013     1     1       157       174      213       60
 5  2013     1     1       216       222      708      121
 6  2013     1     1       255       250      589      115
 7  2013     1     1       285       246     1085      146
 8  2013     1     1       192       191      199       44
 9  2013     1     1       379       456     1092      222
10  2013     1     2       224       207      550       94
# … with 3,296 more rows

Encuentra todos los grupos más grandes que un determinado umbral:

popular_dests <- flights %>% 
  group_by(dest) %>% 
  filter(n() > 365)
popular_dests

# A tibble: 332,577 × 19
# Groups:   dest [77]
    year month   day dep_time sched_de…¹ dep_d…² arr_t…³ sched…⁴ arr_d…⁵ carrier
   <int> <int> <int>    <int>      <int>   <dbl>   <int>   <int>   <dbl> <chr>  
 1  2013     1     1      517        515       2     830     819      11 UA     
 2  2013     1     1      533        529       4     850     830      20 UA     
 3  2013     1     1      542        540       2     923     850      33 AA     
 4  2013     1     1      544        545      -1    1004    1022     -18 B6     
 5  2013     1     1      554        600      -6     812     837     -25 DL     
 6  2013     1     1      554        558      -4     740     728      12 UA     
 7  2013     1     1      555        600      -5     913     854      19 B6     
 8  2013     1     1      557        600      -3     709     723     -14 EV     
 9  2013     1     1      557        600      -3     838     846      -8 B6     
10  2013     1     1      558        600      -2     753     745       8 AA     
# … with 332,567 more rows, 9 more variables: flight <int>, tailnum <chr>,
#   origin <chr>, dest <chr>, air_time <dbl>, distance <dbl>, hour <dbl>,
#   minute <dbl>, time_hour <dttm>, and abbreviated variable names
#   ¹​sched_dep_time, ²​dep_delay, ³​arr_time, ⁴​sched_arr_time, ⁵​arr_delay
…
